Magellana- nef 'Trinidad'

                                 P___----....
                                ! __
                      ' ~~ ---.#..__ `  ~  ~    -  -  .   .:
                       `             ~~--.               .F~~___-__.
                       ;                   ,       .- . _!
                      ,                     '       ;      ~ .
                     ,        ____           ;      ' _ ._    ;
                    ,_ . - '___#,  ~~~ ---. _,   . '  .#'  ~ .;
                  =---==~~~    ~~~==--__     ; '~ -. ,#_     .'
                   '                     `~=.;           `  /
                                             '  '          '.
                    '                         '
            \                                  ' '            '
            `.`\    '                          . ;             ,
              \  `  '                            '             ;
               ;   '                           '               '
             /_ .,                           /   __...---./   '
             ',_,   __.--- ~~;#~ --..__    _'.-~;#     //  `.'
             / / ~~ .' .     #;         ~~  /// #;   //   /
           /    ' . __ .  ' ;#;_ .        ////.;#;./ ;  /
           \ .        /    ,##' /   _   /. '(/    ~||~\'
            \  ` - . /_ . -==-  ~ '   / (/ '     . ;;. ',
           /' .       ' -^^^...--- ``(/'    _  '   '' `,;
##,. .#...(       '   .c  c .c  c  c.    '..      ;; ../
%%#%;,..##.\_                           ,;###;,. ;;.:##;,.    raf
%%%%########%%%%;,.....,;%%%%%%;,.....,;%%%%%%%%%%%%%%%%%%%%............
